Forecasting US Retail Sales Using Time Series Models in R
…
ldcomp <- retail_ts |> model(stl = STL(box_cox(Sales, 0.4243897)))
 components(ldcomp) 

# A dable: 409 x 7 [1M]
# Key:     .model [1]
# :        box_cox(Sales, 0.4243897) = trend + season_year + remainder
   .model    Month `box_cox(Sales, 0.4243897)` trend season_year remainder
   <chr>     <mth>                       <dbl> <dbl>       <dbl>     <dbl>
 1 stl    1992 Jan                        2.94  3.74    -0.839     0.0356 
 2 stl    1992 Feb                        3.12  3.75    -0.664     0.0368 
 3 stl    1992 Mar                        3.41  3.76    -0.237    -0.108  
 4 stl    1992 Apr                        3.67  3.77    -0.133     0.0404 
 5 stl    1992 May                        3.71  3.77    -0.0243   -0.0368 
 6 stl    1992 Jun                        3.61  3.78    -0.160    -0.0116 
 7 stl    1992 Jul                        3.59  3.79    -0.199    -0.00441
 8 stl    1992 Aug                        3.96  3.80     0.154     0.0115 
 9 stl    1992 Sep                        3.72  3.81    -0.116     0.0268 
10 stl    1992 Oct                        3.90  3.81    -0.00400   0.0869 
# ℹ 399 more rows
# ℹ 1 more variable: season_adjust <dbl>
…
